%YAML 1.1
%TAG !u! tag:unity3d.com,2011:
--- !u!114 &11400000
MonoBehaviour:
  m_ObjectHideFlags: 0
  m_CorrespondingSourceObject: {fileID: 0}
  m_PrefabInstance: {fileID: 0}
  m_PrefabAsset: {fileID: 0}
  m_GameObject: {fileID: 0}
  m_Enabled: 1
  m_EditorHideFlags: 0
  m_Script: {fileID: 11500000, guid: affcb8c0e44d23e4d9e72bf2b1344ae4, type: 3}
  m_Name: 1Axe
  m_EditorClassIdentifier: 
  attack: 1
  defense: 1
  hitChance: 0
  icon: {fileID: 21300000, guid: ffc93e3c9d4657f41ad2149deb92b62b, type: 3}
